<?xml version="1.0" encoding="utf-8"?>
<!-- Generator: Adobe Illustrator 19.2.1, SVG Export Plug-In . SVG Version: 6.00 Build 0)  -->
<svg version="1.1" id="logo" xmlns="http://www.w3.org/2000/svg" xmlns:xlink="http://www.w3.org/1999/xlink" x="0px" y="0px"
	 viewBox="0 0 149.5 39.2" style="enable-background:new 0 0 149.5 39.2;" xml:space="preserve">
<style type="text/css">
	.st0{fill:#FFFFFF;}
	.st1{fill:#F37421;}
</style>
<g id="en">
	<g id="text">
		<path id="Path_42-2" class="st0" d="M-301.1-49.6h3.7c3.3,0,5.1,2.1,5.1,6.5c0,4.6-1.6,7.2-5.1,7.2h-3.7V-49.6z M-299.7-37.5h2.4
			c1,0,3.6-0.3,3.6-5.4c0-3.3-0.9-5.2-3.6-5.2h-2.4L-299.7-37.5L-299.7-37.5z"/>
		<path id="Path_43-2" class="st0" d="M-282-40.9c0,3.4-1.5,5.3-4.2,5.3s-4.4-1.6-4.4-5.3v-8.7h1.4v8.7c0,2.4,1.1,3.7,3,3.7
			s2.8-1.3,2.8-3.7v-3.7l1.4-1.4L-282-40.9L-282-40.9z"/>
		<path id="Path_44-2" class="st0" d="M-274.4-43.1L-274.4-43.1c1.1-0.6,1.7-1.8,1.6-3.1c0.1-1.1-0.4-2.2-1.3-2.8
			c-0.9-0.4-1.9-0.6-2.8-0.5h-1.5l-1.4,1.3h3.2c1.2,0,2.3,0.4,2.3,2.3c0,1.4-0.7,2.2-2.3,2.2h-3.2v1.5h3.6c1.1-0.1,2.2,0.6,2.3,1.8
			c0,0.2,0,0.3,0,0.5c0,1.5-0.8,2.4-2,2.4h-4v1.5h4.1c2.1,0,3.3-1.9,3.3-3.9C-272.4-41.5-273.1-42.8-274.4-43.1z"/>
		<path id="Path_45-2" class="st0" d="M-267.5-49.6h1.6l4.2,13.7h-1.6l-1.2-4.1h-4.5l-1.2,4.1h-1.5L-267.5-49.6z M-268.6-41.6h3.6
			l-1.8-6.4l0,0L-268.6-41.6z"/>
		<path id="Path_46-2" class="st0" d="M-260.6-49.6h1.4v13.7h-1.4V-49.6z"/>
		<path id="Path_47-2" class="st0" d="M-245.9-45.6c-0.2-1.9-1.2-2.8-2.7-2.8c-1.2-0.1-2.2,0.7-2.4,1.9c0,0,0,0,0,0
			c0,0.2,0,0.3,0,0.5c0,1.7,1.7,1.9,3.4,2.4s3.4,1.3,3.4,3.9c0.1,2.2-1.6,4-3.8,4.1c0,0,0,0,0,0h-0.4c-2.4,0-4.4-1.5-4.4-4.8h1.4
			c-0.2,1.6,1,3.1,2.6,3.3c0.2,0,0.3,0,0.5,0c1.3,0,2.7-0.5,2.7-2.5s-1.7-2.2-3.4-2.7s-3.4-1.1-3.4-3.6c-0.2-2,1.4-3.8,3.4-4
			c0,0,0,0,0,0c0.2,0,0.3,0,0.5,0c2.2,0,3.9,1.3,3.9,4.3L-245.9-45.6L-245.9-45.6L-245.9-45.6z"/>
		<path id="Path_48-2" class="st0" d="M-240-48h-3.6v-1.5h8.6v1.5h-3.6v12h-1.4L-240-48L-240-48L-240-48z"/>
		<path id="Path_49-2" class="st0" d="M-232.3-49.6h1.6l4.2,13.7h-1.6l-1.2-4.1h-4.5l-1.2,4.1h-1.5L-232.3-49.6z M-233.3-41.6h3.6
			l-1.8-6.4l0,0L-233.3-41.6z"/>
		<path id="Path_50-2" class="st0" d="M-225.4-49.6h5c2,0,3.3,1.4,3.3,3.6c0,1.6-0.6,3-1.9,3.5l0,0c1.2,0.3,1.5,1.5,1.6,2.8
			s0,2.8,0.6,3.8h-1.6c-0.4-0.6-0.2-2-0.4-3.4s-0.4-2.5-1.8-2.5h-3.5v5.8h-1.4L-225.4-49.6L-225.4-49.6L-225.4-49.6z M-221.1-43.3
			c1.3,0,2.5-0.4,2.5-2.4c0-1.3-0.6-2.3-1.9-2.3h-3.5v4.8H-221.1L-221.1-43.3z"/>
		<path id="Path_51-2" class="st0" d="M-213-48h-3.6v-1.5h8.6v1.5h-3.6v12h-1.4L-213-48L-213-48L-213-48z"/>
		<path id="Path_52-2" class="st0" d="M-198.3-40.9c0,3.4-1.5,5.3-4.2,5.3s-4.4-1.6-4.4-5.3v-8.7h1.4v8.7c0,2.4,1.1,3.7,3,3.7
			s2.8-1.3,2.8-3.7v-8.7h1.4L-198.3-40.9L-198.3-40.9z"/>
		<path id="Path_53-2" class="st0" d="M-196-49.6h4.7c2.1,0,3.3,1.5,3.3,4s-1.2,4.1-3.3,4h-3.3v5.6h-1.4V-49.6L-196-49.6z
			 M-194.6-43h2.8c1.6,0,2.4-0.9,2.4-2.5s-0.7-2.5-2.4-2.5h-2.8V-43L-194.6-43z"/>
		<path id="Path_54-2" class="st0" d="M-181.6-49.6h1.4v5.9h5.6v-5.9h1.4v13.7h-1.4v-6.2h-5.6v6.2h-1.4V-49.6z"/>
		<path id="Path_55-2" class="st0" d="M-162.3-40.9c0,3.4-1.5,5.3-4.2,5.3s-4.4-1.6-4.4-5.3v-8.7h1.4v8.7c0,2.4,1.1,3.7,3,3.7
			s2.8-1.3,2.8-3.7v-8.7h1.4L-162.3-40.9L-162.3-40.9z"/>
		<path id="Path_56-2" class="st0" d="M-160-49.6h3.9c1-0.1,2,0.1,2.8,0.5c0.8,0.7,1.3,1.8,1.3,2.8c0.1,1.2-0.5,2.4-1.6,3.1l0,0
			c1.3,0.4,2,1.6,2,3.3c0,2-1.1,3.9-3.3,3.9h-5.2L-160-49.6L-160-49.6z M-158.6-43.7h2.9c1.6,0,2.3-0.7,2.3-2.2c0-1.9-1-2.2-2.3-2.2
			h-2.9V-43.7L-158.6-43.7z M-158.6-37.5h3.6c1.2,0,2-0.9,2-2.4c0.1-1.1-0.7-2.1-1.8-2.3c-0.2,0-0.3,0-0.5,0h-3.3L-158.6-37.5
			L-158.6-37.5z"/>
	</g>
	<path id="shape" class="st1" d="M-281.9-46.7v-1.2h1.2l1.3-1.3h-4v4l0,0L-281.9-46.7z"/>
</g>
<g id="ar">
	<g id="text_1_">
		<path id="Path_24-2" class="st0" d="M-291.5-59.8h-0.7c-1.1,0.1-2.1-0.4-2.7-1.3c-0.6,0.9-1.7,1.4-2.8,1.3c-2,0-3.3-1.3-3.3-4.3
			c0-2.5,0.9-4.3,3.3-4.3h3.5v5.2c0,1.5,0.7,2.2,2.1,2.2h0.6L-291.5-59.8L-291.5-59.8L-291.5-59.8z M-295.4-67.3h-2.1
			c-1.4,0-2.1,1-2.1,3.2s0.7,3.1,2.1,3.1s2.1-1,2.1-3.1V-67.3z M-297.3-70.5h-1.6v-1.6h1.6V-70.5z M-294.7-70.5h-1.6v-1.6h1.6
			L-294.7-70.5L-294.7-70.5z"/>
		<path id="Path_25-2" class="st0" d="M-284.8-59.8h-0.8c-1,0-2-0.5-2.5-1.3c-0.6,0.9-1.6,1.4-2.7,1.3h-0.9V-61h0.8
			c1.4,0,2.1-0.7,2.1-2.2V-68l1.3-0.4v5.4c-0.2,1,0.5,1.9,1.5,2.1c0,0,0,0,0,0c0.2,0,0.3,0,0.5,0h0.8L-284.8-59.8L-284.8-59.8
			L-284.8-59.8z M-285.8-71.1h-5.6l0.8-0.9h0.8v-0.4c-0.1-1.2,0.8-2.2,2-2.4c0,0,0,0,0,0h0.2c0.6,0,1.1,0.2,1.5,0.7l-0.6,0.7
			c-0.2-0.3-0.6-0.5-1-0.5c-0.7,0-1.2,0.6-1.1,1.3v0.7h3L-285.8-71.1L-285.8-71.1L-285.8-71.1z"/>
		<path id="Path_26-2" class="st0" d="M-270.3-63.1c0.2,1.6-1,3.1-2.7,3.3c0,0,0,0-0.1,0c-0.2,0-0.3,0-0.5,0H-285V-61h2.5v-5.3
			l1.3-0.4v5.7h4v-6.1l1.3-0.4v6.6h2.1c1.4,0,2.1-0.7,2.1-2.2V-68l1.3-0.4L-270.3-63.1L-270.3-63.1L-270.3-63.1z M-276.9-70.5h-1.6
			v-1.6h1.6V-70.5z M-274.4-70.5h-1.6v-1.6h1.6V-70.5z M-275.6-72.6h-1.6v-1.6h1.6V-72.6z"/>
		<path id="Path_27-2" class="st0" d="M-266.9-72.1v9.9c-0.1,0.5,0.3,1.1,0.8,1.1c0.1,0,0.1,0,0.2,0h1.9v1.2h-2
			c-1.4,0-2.2-0.8-2.2-2.4v-9.6L-266.9-72.1L-266.9-72.1L-266.9-72.1z"/>
		<path id="Path_28-2" class="st0" d="M-257.3-59.8h-0.8c-1,0-2-0.5-2.5-1.3c-0.6,0.9-1.6,1.4-2.7,1.3h-0.9V-61h0.8
			c1.4,0,2.1-0.7,2.1-2.2V-68l1.3-0.4v5.4c-0.2,1,0.5,1.9,1.5,2.1c0,0,0,0,0,0c0.2,0,0.3,0,0.5,0h0.8L-257.3-59.8L-257.3-59.8
			L-257.3-59.8z M-259.9-70.5h-1.6v-1.6h1.6V-70.5z"/>
		<path id="Path_29-2" class="st0" d="M-253.2-63.1c0.1,1.7-1.2,3.2-2.9,3.3c0,0,0,0,0,0h-1.4V-61h0.9c1.4,0,2-0.7,2-2.2v-8.4
			l1.3-0.4L-253.2-63.1L-253.2-63.1z"/>
		<path id="Path_30-2" class="st0" d="M-249.8-59.8h-1.3v-11.9l1.3-0.4V-59.8z"/>
		<path id="Path_31-2" class="st0" d="M-236.8-64.1h-2.1v2c-0.1,0.5,0.3,1.1,0.8,1.2c0.1,0,0.2,0,0.2,0h1.8v1.2h-2
			c-1.4,0-2.2-0.8-2.2-2.4v-2h-0.1c-1.9,0-3.4,1.5-3.4,3.4s1.5,3.4,3.4,3.4c1,0,2-0.4,2.8-1v1.4c-0.8,0.5-1.8,0.8-2.8,0.8
			c-2.5,0.1-4.7-1.9-4.8-4.5c-0.1-1.9,1.1-3.7,2.8-4.4v-0.6c-0.2-1.5,0.9-2.8,2.4-3c0,0,0,0,0.1,0h0.3c0.7,0,1.4,0.3,1.9,0.8l-1,1
			c-0.2-0.4-0.7-0.6-1.1-0.6c-0.7,0-1.3,0.6-1.3,1.4c0,0,0,0,0,0c0,0,0,0.1,0,0.2v0.4h3.5L-236.8-64.1z"/>
		<path id="Path_32-2" class="st0" d="M-231.9-63.1c0.1,1.7-1.2,3.2-2.9,3.3c0,0,0,0,0,0h-1.4V-61h1c1.4,0,2-0.7,2-2.2V-68l1.3-0.4
			L-231.9-63.1L-231.9-63.1z M-234.9-56.4h-1.6V-58h1.6V-56.4L-234.9-56.4z M-232.4-56.4h-1.6V-58h1.6V-56.4L-232.4-56.4z"/>
		<path id="Path_33-2" class="st0" d="M-225.7-60.5c0,2.5-1,4.4-3.7,4.4c-0.7,0-1.4-0.2-2-0.4l-0.6-1.4c0.7,0.4,1.6,0.7,2.4,0.6
			c1.7,0,2.5-1.4,2.5-3V-68l1.3-0.4L-225.7-60.5L-225.7-60.5z"/>
		<path id="Path_34-2" class="st0" d="M-222.3-72.1v9.9c-0.1,0.5,0.3,1.1,0.8,1.1c0.1,0,0.1,0,0.2,0h1.9v1.2h-2
			c-1.4,0-2.2-0.8-2.2-2.4v-9.6L-222.3-72.1z"/>
		<path id="Path_35-2" class="st0" d="M-217-66.1l1.3-0.4v5.5h4.1v-6l1.3-0.4v6.4h4.1v-6.9l1.3-0.4v7.3h2.4v1.2h-17.1V-61h2.6
			L-217-66.1L-217-66.1z M-211.5-70.5h-1.6v-1.6h1.6V-70.5z M-209-70.5h-1.6v-1.6h1.6V-70.5z M-210.2-72.6h-1.6v-1.6h1.6V-72.6z"/>
		<path id="Path_36-2" class="st0" d="M-189.8-59.8h-0.9c-0.9,0-1.8-0.3-2.5-1c-0.4,1.4-1.7,2.3-3.1,2.2c-1.4,0.1-2.6-0.7-3.1-2
			c-0.6,0.5-1.4,0.8-2.3,0.8h-1V-61h0.9c1,0.1,1.9-0.7,2-1.7c0,0,0-0.1,0-0.1c0.1-2.3,1-3.9,3.4-3.9c2.1,0,3.2,1.3,3.4,3.5
			c0,1.5,0.7,2.3,2.1,2.3h1L-189.8-59.8L-189.8-59.8z M-196.3-65.6c-1.4,0-2,0.9-2,2.9s0.6,2.9,2,2.9s2-1,2-2.9
			S-194.9-65.5-196.3-65.6L-196.3-65.6z"/>
		<path id="Path_37-2" class="st0" d="M-183.1-59.8h-0.8c-1,0-2-0.5-2.5-1.3c-0.6,0.9-1.6,1.4-2.7,1.3h-0.9V-61h0.8
			c1.4,0,2.1-0.7,2.1-2.2v-8.4l1.3-0.4v9c-0.2,1,0.5,1.9,1.5,2.1c0,0,0,0,0,0c0.2,0,0.3,0,0.5,0h0.8L-183.1-59.8L-183.1-59.8
			L-183.1-59.8z"/>
		<path id="Path_38-2" class="st0" d="M-179-63.1c0.1,1.7-1.2,3.2-2.9,3.3c0,0,0,0,0,0h-1.4V-61h1c1.4,0,2-0.7,2-2.2v-8.4l1.3-0.4
			L-179-63.1L-179-63.1z"/>
		<path id="Path_39-2" class="st0" d="M-174.2-61.1c0-1.3,0.3-2.5,0.7-3.7l1.4-1c-0.5,1.4-0.9,2.8-0.9,4.3c0,2.3,1,4.1,3.4,4.1
			c1.9,0,3.4-0.8,3.5-2.4c-1.1,0.1-2.1-0.5-2.4-1.6l0.6-1.3c0.2,0.9,1,1.6,2,1.7h1.1v1.2c0,2.1-1.8,3.7-4.8,3.7
			S-174.2-58.2-174.2-61.1z M-169.8-53.1h-1.6v-1.6h1.6V-53.1z M-167.3-53.1h-1.6v-1.6h1.6V-53.1z"/>
		<path id="Path_40-2" class="st0" d="M-160.4-63.1c0,1.9-0.3,3.3-3.4,3.3h-1V-61h1c1.4,0,2,0,2-1.5V-63l1.5-1.3L-160.4-63.1
			L-160.4-63.1z M-161.8-55.7h-1.6v-1.6h1.6V-55.7z"/>
		<path id="Path_41-2" class="st0" d="M-152-59.8h-7l0.8-1.2h4.8v-3.6c0.1-1.1-0.6-2-1.7-2.2c-0.1,0-0.3,0-0.4,0h-2.8l1.2-1.3
			c0.8,0,0.6,0,1.6,0c1.7-0.2,3.2,1.1,3.4,2.8c0,0,0,0,0,0c0,0.2,0,0.3,0,0.5L-152-59.8L-152-59.8z"/>
	</g>
	<path id="shape_1_" class="st1" d="M-160.4-65.5v-1.2h1.2l1.3-1.3h-4v4l0,0L-160.4-65.5z"/>
</g>
</svg>
